[
    {
        "id" : 1,
        "name" : "Jeans Pant",
        "type" : "Fashion",
        "price" : 40
    },
    {
        "id" : 2,
        "name" : "Jeans Shirt",
        "type" : "Fashion",
        "price" : 300
    },
    {
        "id" : 3,
        "name" : "Coolers",
        "type" : "Fashion",
        "price" : 240
    },
    {
        "name" : "One Plus 6T",
        "type" : "Mobile Phones",
        "price" : 60000
    },
    {
        "id" : 5,
        "name" : "Samsung A1",
        "type" : "Mobile Phones",
        "price" : 50000
    },
    {
        "id" : 6,
        "name" : "Micromax A1",
        "type" : "Mobile Phones"
    },
    {
        "id" : 7,
        "name" : "Pepsi",
        "type" : "Food",
        "price" : 50
    },
    {
        "id" : 8,
        "name" : "Coke",
        "type" : "Food",
        "price" : 40
    },
    {
        "id" : 9,
        "name" : "Fried Rice",
        "type" : "Food",
        "price" : 100
    },
    {
        "id" : 10,
        "name" : "Biryani",
        "type" : "Food",
        "price" : 120
    },
    {
        "id" : 11,
        "name" : "Avenger T-Shirt",
        "type" : "Fashion",
        "price" : 400,
        "prime_discount" : 350
    },
    {
        "id" : 12,
        "name" : "Iorn Man T-Shirt",
        "type" : "Fashion",
        "price" : 400,
        "prime_discount" : 350
    },
    {
        "name" : "Marvel T-Shirt",
        "type" : "Fashion",
        "price" : 400,
        "prime_discount" : 350
    },
    {
        "name" : "DC T-Shirt",
        "type" : "Fashion",
        "price" : 400,
        "prime_discount" : 350
    },
    {
        "id" : 14,
        "name" : "Batman T-Shirt",
        "type" : "Fashion",
        "price" : 400,
        "prime_discount" : 350
    },
    {
        "id" : 15,
        "name" : "One Plus 7T",
        "type" : "Mobile Phones",
        "price" : 60000,
        "prime_discount" : 55000
    },
    {
        "id" : 16,
        "name" : "One Plus 7 Pro",
        "type" : "Mobile Phones",
        "price" : 60000,
        "prime_discount" : 55000
    },
    {
        "id" : 17,
        "name" : "One Plus 6 Pro",
        "type" : "Mobile Phones",
        "price" : 60000,
        "prime_discount" : 55000
    },
    {
        "id" : 18,
        "name" : "Mutton Biryani",
        "type" : "Food",
        "price" : 180,
        "prime_discount" : 170
    },
    {
        "id" : 19,
        "name" : "Pizza",
        "type" : "Food",
        "price" : 400,
        "prime_discount" : 340
    },
    {
        "id" : 20,
        "name" : "Burger",
        "type" : "Food",
        "price" : 120,
        "prime_discount" : 100
    }
]
